xG Model - Design and Implementation with R Tidymodels
…
To avoid being redundant I will try to outline how to implement xG-models in a modern tidy R framework via tidymodels, to evaluate the fit of the model through methods I learned through the Google’s ML course and to finally contrast what xG-models are and aren’t good at. In this first post I will show how to implement a simple xG-model.

Let’s start by loading the necessary libraries and helper functions.

library(dbplyr) # database access
library(DBI) # database access
library(tidyverse) # dataframe manipulation
library(tidymodels) # data processing and modeling

source("../data/pitch_plots.r") # helper function to plot the pitch

You can see our initial dataset below. This is bare-bones event data represented in a wide dataframe with each row representing one shot. Notably we do not have any information on the shooter, the teams or the match. For our initial model we will actually only use the three left most columns which hold information on the location and the outcome of each shot. These are all open-play shots, meaning that I made sure to filter out any headers, penalties, shots after corners or from free kicks.

## # A tibble: 51,981 x 12
##    location_x location_y is_goal big_chance header from_corner from_fk direct_fk
##         <dbl>      <dbl>   <dbl>      <dbl>  <dbl>       <dbl>   <dbl>     <dbl>
##  1       74.8       64.5       0          0      0           0       0         0
##  2       87.5       61.5       0          1      0           0       0         0
##  3       78.2       72.3       1          0      0           0       0         0
##  4       80.5       44.7       0          0      0           0       0         0
##  5       91.3       59         1          1      0           0       0         0
##  6       67.4       36.3       0          0      0           0       0         0
##  7       79.5       33         0          0      0           0       0         0
##  8       78.6       51.1       0          0      0           0       0         0
##  9       79.5       41.5       0          0      0           0       0         0
## 10       70.8       55.7       0          0      0           0       0         0
## # … with 51,971 more rows, and 4 more variables: penalty <dbl>, assisted <dbl>,
## #   intentional_assist <dbl>, fast_break <dbl>
…
